{
  "dev": {
    "logLevel": "debug",
    "host": "http://d6513fa2.ngrok.io",
    "staticAssetsHost": "https://s3-ap-northeast-1.amazonaws.com/serverless-hipchat-connect-client.dev.ap-northeast-1",
    "useDynamoDBLocal": true,
    "dynamoDBLocalURL": "http://localhost:8000",
    "maxJWTTokenAge": 86400
  },
  "beta": {
    "logLevel": "debug",
    "host": "http://your-subdomain.ngrok.io",
    "staticAssetsHost": "https://your-subdomain.awss3.com",
    "maxJWTTokenAge": 86400
  },
  "prod": {
    "host": "https://your-subdomain.apigateway.aws.com",
    "staticAssetsHost": "https://your-subdomain.awss3.com",
    "logLevel": "warn",
    "maxJWTTokenAge": 900
  }
}
